EESchema Schematic File Version 4
LIBS:usbpower-cache
EELAYER 30 0
EELAYER END
$Descr A4 11693 8268
encoding utf-8
Sheet 3 3
Title ""
Date ""
Rev ""
Comp ""
Comment1 ""
Comment2 ""
Comment3 ""
Comment4 ""
$EndDescr
$Comp
L Power_Management:MIC2026-1BM U?
U 1 1 5E46AC94
P 6500 1150
AR Path="/5E46AC94" Ref="U?"  Part="1" 
AR Path="/5E45A090/5E46AC94" Ref="U3"  Part="1" 
F 0 "U3" H 6500 1717 50  0000 C CNN
F 1 "MIC2026-1BM" H 6500 1626 50  0000 C CNN
F 2 "Package_SO:SOIC-8_3.9x4.9mm_P1.27mm" H 6500 1150 50  0001 C CNN
F 3 "http://ww1.microchip.com/downloads/en/DeviceDoc/mic2026.pdf" H 6500 1150 50  0001 C CNN
	1    6500 1150
	1    0    0    -1  
$EndComp
$Comp
L Power_Management:MIC2026-1BM U?
U 1 1 5E46AC9A
P 6500 2550
AR Path="/5E46AC9A" Ref="U?"  Part="1" 
AR Path="/5E45A090/5E46AC9A" Ref="U4"  Part="1" 
F 0 "U4" H 6500 3117 50  0000 C CNN
F 1 "MIC2026-1BM" H 6500 3026 50  0000 C CNN
F 2 "Package_SO:SOIC-8_3.9x4.9mm_P1.27mm" H 6500 2550 50  0001 C CNN
F 3 "http://ww1.microchip.com/downloads/en/DeviceDoc/mic2026.pdf" H 6500 2550 50  0001 C CNN
	1    6500 2550
	1    0    0    -1  
$EndComp
$Comp
L Power_Management:MIC2026-1BM U?
U 1 1 5E46ACA0
P 6650 4150
AR Path="/5E46ACA0" Ref="U?"  Part="1" 
AR Path="/5E45A090/5E46ACA0" Ref="U5"  Part="1" 
F 0 "U5" H 6650 4717 50  0000 C CNN
F 1 "MIC2026-1BM" H 6650 4626 50  0000 C CNN
F 2 "Package_SO:SOIC-8_3.9x4.9mm_P1.27mm" H 6650 4150 50  0001 C CNN
F 3 "http://ww1.microchip.com/downloads/en/DeviceDoc/mic2026.pdf" H 6650 4150 50  0001 C CNN
	1    6650 4150
	1    0    0    -1  
$EndComp
$Comp
L Power_Management:MIC2026-1BM U?
U 1 1 5E46ACA6
P 6650 5550
AR Path="/5E46ACA6" Ref="U?"  Part="1" 
AR Path="/5E45A090/5E46ACA6" Ref="U6"  Part="1" 
F 0 "U6" H 6650 6117 50  0000 C CNN
F 1 "MIC2026-1BM" H 6650 6026 50  0000 C CNN
F 2 "Package_SO:SOIC-8_3.9x4.9mm_P1.27mm" H 6650 5550 50  0001 C CNN
F 3 "http://ww1.microchip.com/downloads/en/DeviceDoc/mic2026.pdf" H 6650 5550 50  0001 C CNN
	1    6650 5550
	1    0    0    -1  
$EndComp
$Comp
L Connector:USB_A J?
U 1 1 5E46ACAC
P 10600 700
AR Path="/5E46ACAC" Ref="J?"  Part="1" 
AR Path="/5E45A090/5E46ACAC" Ref="J2"  Part="1" 
F 0 "J2" V 10611 1030 50  0000 L CNN
F 1 "USB_A" V 10702 1030 50  0000 L CNN
F 2 "Connector_USB:USB_A_Stewart_SS-52100-001_Horizontal" H 10750 650 50  0001 C CNN
F 3 " ~" H 10750 650 50  0001 C CNN
	1    10600 700 
	0    1    1    0   
$EndComp
$Comp
L Connector:USB_A J?
U 1 1 5E46ACB2
P 10600 1450
AR Path="/5E46ACB2" Ref="J?"  Part="1" 
AR Path="/5E45A090/5E46ACB2" Ref="J3"  Part="1" 
F 0 "J3" V 10611 1780 50  0000 L CNN
F 1 "USB_A" V 10702 1780 50  0000 L CNN
F 2 "Connector_USB:USB_A_Stewart_SS-52100-001_Horizontal" H 10750 1400 50  0001 C CNN
F 3 " ~" H 10750 1400 50  0001 C CNN
	1    10600 1450
	0    1    1    0   
$EndComp
$Comp
L Connector:USB_A J?
U 1 1 5E46ACB8
P 10600 2250
AR Path="/5E46ACB8" Ref="J?"  Part="1" 
AR Path="/5E45A090/5E46ACB8" Ref="J4"  Part="1" 
F 0 "J4" V 10611 2580 50  0000 L CNN
F 1 "USB_A" V 10702 2580 50  0000 L CNN
F 2 "Connector_USB:USB_A_Stewart_SS-52100-001_Horizontal" H 10750 2200 50  0001 C CNN
F 3 " ~" H 10750 2200 50  0001 C CNN
	1    10600 2250
	0    1    1    0   
$EndComp
$Comp
L Connector:USB_A J?
U 1 1 5E46ACBE
P 10600 3050
AR Path="/5E46ACBE" Ref="J?"  Part="1" 
AR Path="/5E45A090/5E46ACBE" Ref="J5"  Part="1" 
F 0 "J5" V 10611 3380 50  0000 L CNN
F 1 "USB_A" V 10702 3380 50  0000 L CNN
F 2 "Connector_USB:USB_A_Stewart_SS-52100-001_Horizontal" H 10750 3000 50  0001 C CNN
F 3 " ~" H 10750 3000 50  0001 C CNN
	1    10600 3050
	0    1    1    0   
$EndComp
$Comp
L Connector:USB_A J?
U 1 1 5E46ACC4
P 10600 3850
AR Path="/5E46ACC4" Ref="J?"  Part="1" 
AR Path="/5E45A090/5E46ACC4" Ref="J6"  Part="1" 
F 0 "J6" V 10611 4180 50  0000 L CNN
F 1 "USB_A" V 10702 4180 50  0000 L CNN
F 2 "Connector_USB:USB_A_Stewart_SS-52100-001_Horizontal" H 10750 3800 50  0001 C CNN
F 3 " ~" H 10750 3800 50  0001 C CNN
	1    10600 3850
	0    1    1    0   
$EndComp
$Comp
L Connector:USB_A J?
U 1 1 5E46ACCA
P 10600 4650
AR Path="/5E46ACCA" Ref="J?"  Part="1" 
AR Path="/5E45A090/5E46ACCA" Ref="J7"  Part="1" 
F 0 "J7" V 10611 4980 50  0000 L CNN
F 1 "USB_A" V 10702 4980 50  0000 L CNN
F 2 "Connector_USB:USB_A_Stewart_SS-52100-001_Horizontal" H 10750 4600 50  0001 C CNN
F 3 " ~" H 10750 4600 50  0001 C CNN
	1    10600 4650
	0    1    1    0   
$EndComp
$Comp
L Connector:USB_B_Micro J?
U 1 1 5E46ACD6
P 1450 1300
AR Path="/5E46ACD6" Ref="J?"  Part="1" 
AR Path="/5E45A090/5E46ACD6" Ref="J1"  Part="1" 
F 0 "J1" V 1461 1630 50  0000 L CNN
F 1 "USB_B_Micro" V 1552 1630 50  0000 L CNN
F 2 "Connector_USB:USB_Micro-B_Molex_47346-0001" H 1600 1250 50  0001 C CNN
F 3 "~" H 1600 1250 50  0001 C CNN
	1    1450 1300
	0    1    1    0   
$EndComp
$Comp
L powerLib:INA4180A1IPWR U?
U 1 1 5E46ACDC
P 8400 1850
AR Path="/5E46ACDC" Ref="U?"  Part="1" 
AR Path="/5E45A090/5E46ACDC" Ref="U8"  Part="1" 
F 0 "U8" H 8050 2350 50  0000 C CNN
F 1 "INA4180A1IPWR" H 8750 2350 50  0000 C CNN
F 2 "Package_SO:TSSOP-14_4.4x5mm_P0.65mm" H 8450 2450 50  0001 C CNN
F 3 "http://www.ti.com/lit/ds/symlink/ina4180.pdf" H 8400 1850 50  0001 C CNN
	1    8400 1850
	1    0    0    -1  
$EndComp
$Comp
L powerLib:INA4180A1IPWR U?
U 1 1 5E46ACE2
P 8550 4850
AR Path="/5E46ACE2" Ref="U?"  Part="1" 
AR Path="/5E45A090/5E46ACE2" Ref="U7"  Part="1" 
F 0 "U7" H 8200 5350 50  0000 C CNN
F 1 "INA4180A1IPWR" H 8850 5350 50  0000 C CNN
F 2 "Package_SO:TSSOP-14_4.4x5mm_P0.65mm" H 8600 5450 50  0001 C CNN
F 3 "http://www.ti.com/lit/ds/symlink/ina4180.pdf" H 8550 4850 50  0001 C CNN
	1    8550 4850
	1    0    0    -1  
$EndComp
Wire Wire Line
	10350 3700 10350 3800
$Comp
L power:GND #PWR?
U 1 1 5E46AD03
P 10150 850
AR Path="/5E46AD03" Ref="#PWR?"  Part="1" 
AR Path="/5E45A090/5E46AD03" Ref="#PWR0101"  Part="1" 
F 0 "#PWR0101" H 10150 600 50  0001 C CNN
F 1 "GND" H 10155 677 50  0000 C CNN
F 2 "" H 10150 850 50  0001 C CNN
F 3 "" H 10150 850 50  0001 C CNN
	1    10150 850 
	1    0    0    -1  
$EndComp
$Comp
L Device:C C?
U 1 1 5E46AD09
P 9850 700
AR Path="/5E46AD09" Ref="C?"  Part="1" 
AR Path="/5E45A090/5E46AD09" Ref="C1"  Part="1" 
F 0 "C1" H 9965 746 50  0000 L CNN
F 1 "0.1uf" H 9965 655 50  0000 L CNN
F 2 "Capacitor_SMD:C_0603_1608Metric" H 9888 550 50  0001 C CNN
F 3 "~" H 9850 700 50  0001 C CNN
	1    9850 700 
	1    0    0    -1  
$EndComp
Wire Wire Line
	10200 600  10050 600 
Wire Wire Line
	10050 600  10050 550 
Wire Wire Line
	10200 700  10150 700 
Wire Wire Line
	10150 700  10150 850 
Wire Wire Line
	10150 850  9850 850 
Wire Wire Line
	9850 550  10050 550 
Connection ~ 10150 850 
Text Label 6100 850  2    50   ~ 0
EN_1
Text Label 6100 1150 2    50   ~ 0
EN_2
Text Label 6100 950  2    50   ~ 0
FLG_1
Text Label 6100 1250 2    50   ~ 0
FLG_2
$Comp
L power:GND #PWR?
U 1 1 5E47D08A
P 10150 1600
AR Path="/5E47D08A" Ref="#PWR?"  Part="1" 
AR Path="/5E45A090/5E47D08A" Ref="#PWR0102"  Part="1" 
F 0 "#PWR0102" H 10150 1350 50  0001 C CNN
F 1 "GND" H 10155 1427 50  0000 C CNN
F 2 "" H 10150 1600 50  0001 C CNN
F 3 "" H 10150 1600 50  0001 C CNN
	1    10150 1600
	1    0    0    -1  
$EndComp
$Comp
L Device:C C?
U 1 1 5E47D090
P 9850 1450
AR Path="/5E47D090" Ref="C?"  Part="1" 
AR Path="/5E45A090/5E47D090" Ref="C2"  Part="1" 
F 0 "C2" H 9965 1496 50  0000 L CNN
F 1 "0.1uf" H 9965 1405 50  0000 L CNN
F 2 "Capacitor_SMD:C_0603_1608Metric" H 9888 1300 50  0001 C CNN
F 3 "~" H 9850 1450 50  0001 C CNN
	1    9850 1450
	1    0    0    -1  
$EndComp
Wire Wire Line
	10200 1350 10050 1350
Wire Wire Line
	10050 1350 10050 1300
Wire Wire Line
	10200 1450 10150 1450
Wire Wire Line
	10150 1450 10150 1600
Wire Wire Line
	10150 1600 9850 1600
Wire Wire Line
	9850 1300 10050 1300
Connection ~ 10150 1600
$Comp
L power:GND #PWR?
U 1 1 5E48944F
P 10150 2400
AR Path="/5E48944F" Ref="#PWR?"  Part="1" 
AR Path="/5E45A090/5E48944F" Ref="#PWR0103"  Part="1" 
F 0 "#PWR0103" H 10150 2150 50  0001 C CNN
F 1 "GND" H 10155 2227 50  0000 C CNN
F 2 "" H 10150 2400 50  0001 C CNN
F 3 "" H 10150 2400 50  0001 C CNN
	1    10150 2400
	1    0    0    -1  
$EndComp
$Comp
L Device:C C?
U 1 1 5E489455
P 9850 2250
AR Path="/5E489455" Ref="C?"  Part="1" 
AR Path="/5E45A090/5E489455" Ref="C3"  Part="1" 
F 0 "C3" H 9965 2296 50  0000 L CNN
F 1 "0.1uf" H 9965 2205 50  0000 L CNN
F 2 "Capacitor_SMD:C_0603_1608Metric" H 9888 2100 50  0001 C CNN
F 3 "~" H 9850 2250 50  0001 C CNN
	1    9850 2250
	1    0    0    -1  
$EndComp
Wire Wire Line
	10200 2150 10050 2150
Wire Wire Line
	10050 2150 10050 2100
Wire Wire Line
	10200 2250 10150 2250
Wire Wire Line
	10150 2250 10150 2400
Wire Wire Line
	10150 2400 9850 2400
Wire Wire Line
	9850 2100 10050 2100
Connection ~ 10150 2400
Wire Wire Line
	10800 1000 10800 1200
Wire Wire Line
	10800 3350 10800 3550
Text GLabel 7050 3850 2    50   Input ~ 0
5V
Text GLabel 7050 5250 2    50   Input ~ 0
5V
$Comp
L power:GND #PWR?
U 1 1 5E507D9F
P 10150 3200
AR Path="/5E507D9F" Ref="#PWR?"  Part="1" 
AR Path="/5E45A090/5E507D9F" Ref="#PWR0106"  Part="1" 
F 0 "#PWR0106" H 10150 2950 50  0001 C CNN
F 1 "GND" H 10155 3027 50  0000 C CNN
F 2 "" H 10150 3200 50  0001 C CNN
F 3 "" H 10150 3200 50  0001 C CNN
	1    10150 3200
	1    0    0    -1  
$EndComp
$Comp
L Device:C C?
U 1 1 5E507DA5
P 9850 3050
AR Path="/5E507DA5" Ref="C?"  Part="1" 
AR Path="/5E45A090/5E507DA5" Ref="C4"  Part="1" 
F 0 "C4" H 9965 3096 50  0000 L CNN
F 1 "0.1uf" H 9965 3005 50  0000 L CNN
F 2 "Capacitor_SMD:C_0603_1608Metric" H 9888 2900 50  0001 C CNN
F 3 "~" H 9850 3050 50  0001 C CNN
	1    9850 3050
	1    0    0    -1  
$EndComp
Wire Wire Line
	10200 2950 10050 2950
Wire Wire Line
	10050 2950 10050 2900
Wire Wire Line
	10200 3050 10150 3050
Wire Wire Line
	10150 3050 10150 3200
Wire Wire Line
	10150 3200 9850 3200
Wire Wire Line
	9850 2900 10050 2900
Connection ~ 10150 3200
$Comp
L power:GND #PWR?
U 1 1 5E509327
P 10150 4000
AR Path="/5E509327" Ref="#PWR?"  Part="1" 
AR Path="/5E45A090/5E509327" Ref="#PWR0107"  Part="1" 
F 0 "#PWR0107" H 10150 3750 50  0001 C CNN
F 1 "GND" H 10155 3827 50  0000 C CNN
F 2 "" H 10150 4000 50  0001 C CNN
F 3 "" H 10150 4000 50  0001 C CNN
	1    10150 4000
	1    0    0    -1  
$EndComp
$Comp
L Device:C C?
U 1 1 5E50932D
P 9850 3850
AR Path="/5E50932D" Ref="C?"  Part="1" 
AR Path="/5E45A090/5E50932D" Ref="C5"  Part="1" 
F 0 "C5" H 9965 3896 50  0000 L CNN
F 1 "0.1uf" H 9965 3805 50  0000 L CNN
F 2 "Capacitor_SMD:C_0603_1608Metric" H 9888 3700 50  0001 C CNN
F 3 "~" H 9850 3850 50  0001 C CNN
	1    9850 3850
	1    0    0    -1  
$EndComp
Wire Wire Line
	10200 3750 10050 3750
Wire Wire Line
	10050 3750 10050 3700
Wire Wire Line
	10200 3850 10150 3850
Wire Wire Line
	10150 3850 10150 4000
Wire Wire Line
	10150 4000 9850 4000
Wire Wire Line
	9850 3700 10050 3700
Connection ~ 10150 4000
$Comp
L power:GND #PWR?
U 1 1 5E50CC05
P 10150 4800
AR Path="/5E50CC05" Ref="#PWR?"  Part="1" 
AR Path="/5E45A090/5E50CC05" Ref="#PWR0108"  Part="1" 
F 0 "#PWR0108" H 10150 4550 50  0001 C CNN
F 1 "GND" H 10155 4627 50  0000 C CNN
F 2 "" H 10150 4800 50  0001 C CNN
F 3 "" H 10150 4800 50  0001 C CNN
	1    10150 4800
	1    0    0    -1  
$EndComp
$Comp
L Device:C C?
U 1 1 5E50CC0B
P 9850 4650
AR Path="/5E50CC0B" Ref="C?"  Part="1" 
AR Path="/5E45A090/5E50CC0B" Ref="C6"  Part="1" 
F 0 "C6" H 9965 4696 50  0000 L CNN
F 1 "0.1uf" H 9965 4605 50  0000 L CNN
F 2 "Capacitor_SMD:C_0603_1608Metric" H 9888 4500 50  0001 C CNN
F 3 "~" H 9850 4650 50  0001 C CNN
	1    9850 4650
	1    0    0    -1  
$EndComp
Wire Wire Line
	10200 4550 10050 4550
Wire Wire Line
	10050 4550 10050 4500
Wire Wire Line
	10200 4650 10150 4650
Wire Wire Line
	10150 4650 10150 4800
Wire Wire Line
	10150 4800 9850 4800
Wire Wire Line
	9850 4500 10050 4500
Connection ~ 10150 4800
Wire Wire Line
	9700 1200 10800 1200
Wire Wire Line
	10800 1750 10800 1950
Wire Wire Line
	10800 2550 10800 2750
$Comp
L power:GND #PWR?
U 1 1 5E557D68
P 6500 1650
AR Path="/5E557D68" Ref="#PWR?"  Part="1" 
AR Path="/5E45A090/5E557D68" Ref="#PWR0110"  Part="1" 
F 0 "#PWR0110" H 6500 1400 50  0001 C CNN
F 1 "GND" H 6505 1477 50  0000 C CNN
F 2 "" H 6500 1650 50  0001 C CNN
F 3 "" H 6500 1650 50  0001 C CNN
	1    6500 1650
	1    0    0    -1  
$EndComp
$Comp
L power:GND #PWR?
U 1 1 5E558361
P 6500 3050
AR Path="/5E558361" Ref="#PWR?"  Part="1" 
AR Path="/5E45A090/5E558361" Ref="#PWR0111"  Part="1" 
F 0 "#PWR0111" H 6500 2800 50  0001 C CNN
F 1 "GND" H 6505 2877 50  0000 C CNN
F 2 "" H 6500 3050 50  0001 C CNN
F 3 "" H 6500 3050 50  0001 C CNN
	1    6500 3050
	1    0    0    -1  
$EndComp
Text Label 850  6800 2    50   ~ 0
FLG_1
Text Label 850  6700 2    50   ~ 0
FLG_2
Text Label 850  6200 2    50   ~ 0
FLG_3
Text Label 850  6100 2    50   ~ 0
FLG_4
Text Label 850  6600 2    50   ~ 0
EN_2
Text Label 850  6900 2    50   ~ 0
EN_1
$Comp
L usb2517:USB2517-JZX-TR U?
U 1 1 5E561331
P 850 4100
AR Path="/5E561331" Ref="U?"  Part="1" 
AR Path="/5E45A090/5E561331" Ref="U2"  Part="1" 
F 0 "U2" H 3650 4487 60  0000 C CNN
F 1 "USB2517-JZX-TR" H 3650 4381 60  0000 C CNN
F 2 "Package_DFN_QFN:QFN-64-1EP_9x9mm_P0.5mm_EP4.7x4.7mm" H 3650 4340 60  0001 C CNN
F 3 "" H 850 4100 60  0000 C CNN
	1    850  4100
	1    0    0    -1  
$EndComp
$Comp
L power:GND #PWR?
U 1 1 5E5906A1
P 6650 4650
AR Path="/5E5906A1" Ref="#PWR?"  Part="1" 
AR Path="/5E45A090/5E5906A1" Ref="#PWR0112"  Part="1" 
F 0 "#PWR0112" H 6650 4400 50  0001 C CNN
F 1 "GND" H 6655 4477 50  0000 C CNN
F 2 "" H 6650 4650 50  0001 C CNN
F 3 "" H 6650 4650 50  0001 C CNN
	1    6650 4650
	1    0    0    -1  
$EndComp
$Comp
L power:GND #PWR?
U 1 1 5E590C63
P 6650 6050
AR Path="/5E590C63" Ref="#PWR?"  Part="1" 
AR Path="/5E45A090/5E590C63" Ref="#PWR0113"  Part="1" 
F 0 "#PWR0113" H 6650 5800 50  0001 C CNN
F 1 "GND" H 6655 5877 50  0000 C CNN
F 2 "" H 6650 6050 50  0001 C CNN
F 3 "" H 6650 6050 50  0001 C CNN
	1    6650 6050
	1    0    0    -1  
$EndComp
Wire Wire Line
	10800 4950 10800 5150
Text Label 6100 2250 2    50   ~ 0
EN_3
Text Label 6100 2550 2    50   ~ 0
EN_4
Text Label 6100 2350 2    50   ~ 0
FLG_3
Text Label 6100 2650 2    50   ~ 0
FLG_4
Text Label 6250 3850 2    50   ~ 0
EN_5
Text Label 6250 4150 2    50   ~ 0
EN_6
Text Label 6250 3950 2    50   ~ 0
FLG_5
Text Label 6250 4250 2    50   ~ 0
FLG_6
Text Label 6250 5250 2    50   ~ 0
EN_7
Text Label 6250 5350 2    50   ~ 0
FLG_7
NoConn ~ 6250 5650
NoConn ~ 6250 5550
Text Label 4350 6900 0    50   ~ 0
FLG_7
Text Label 4350 6800 0    50   ~ 0
FLG_6
Text Label 4350 7000 0    50   ~ 0
EN_7
Text Label 4350 6700 0    50   ~ 0
EN_6
Text Label 850  6000 2    50   ~ 0
EN_4
Text Label 850  6300 2    50   ~ 0
EN_3
Text Label 850  7000 2    50   ~ 0
EN_5
Text Label 4350 7100 0    50   ~ 0
FLG_5
$Comp
L power:GND #PWR?
U 1 1 5E5EC499
P 4350 4100
AR Path="/5E5EC499" Ref="#PWR?"  Part="1" 
AR Path="/5E45A090/5E5EC499" Ref="#PWR0114"  Part="1" 
F 0 "#PWR0114" H 4350 3850 50  0001 C CNN
F 1 "GND" H 4355 3927 50  0000 C CNN
F 2 "" H 4350 4100 50  0001 C CNN
F 3 "" H 4350 4100 50  0001 C CNN
	1    4350 4100
	0    -1   -1   0   
$EndComp
Wire Wire Line
	4350 4700 4650 4700
Wire Wire Line
	4350 4800 4750 4800
Wire Wire Line
	10500 1050 10500 1000
Wire Wire Line
	10600 1150 10600 1000
Text Label 10500 1050 2    50   ~ 0
DM_1
Text Label 10600 1150 2    50   ~ 0
DP_1
Wire Wire Line
	10500 1800 10500 1750
Wire Wire Line
	10600 1900 10600 1750
Text Label 10500 1800 2    50   ~ 0
DM_2
Text Label 10600 1900 2    50   ~ 0
DP_2
Wire Wire Line
	10500 2600 10500 2550
Wire Wire Line
	10600 2700 10600 2550
Text Label 10500 2600 2    50   ~ 0
DM_3
Text Label 10600 2700 2    50   ~ 0
DP_3
Wire Wire Line
	10500 3400 10500 3350
Wire Wire Line
	10600 3500 10600 3350
Text Label 10500 3400 2    50   ~ 0
DM_4
Text Label 10600 3500 2    50   ~ 0
DP_4
Wire Wire Line
	10500 4200 10500 4150
Wire Wire Line
	10600 4300 10600 4150
Text Label 10500 4200 2    50   ~ 0
DM_5
Text Label 10600 4300 2    50   ~ 0
DP_5
Wire Wire Line
	10500 5000 10500 4950
Wire Wire Line
	10600 5100 10600 4950
Text Label 10500 5000 2    50   ~ 0
DM_6
Text Label 10600 5100 2    50   ~ 0
DP_6
Text Label 850  4100 2    50   ~ 0
DM_1
Text Label 850  4200 2    50   ~ 0
DP_1
Text Label 850  4300 2    50   ~ 0
DM_2
Text Label 850  4400 2    50   ~ 0
DP_2
Text Label 850  4600 2    50   ~ 0
DM_3
Text Label 850  4700 2    50   ~ 0
DP_3
Text Label 850  4800 2    50   ~ 0
DM_4
Text Label 850  4900 2    50   ~ 0
DP_4
Text Label 850  5100 2    50   ~ 0
DM_5
Text Label 850  5200 2    50   ~ 0
DP_5
Text Label 4350 5100 0    50   ~ 0
DM_7
Text Label 4350 5000 0    50   ~ 0
DP_7
Text Label 4350 5300 0    50   ~ 0
DM_6
Text Label 4350 5200 0    50   ~ 0
DP_6
$Comp
L Device:R R1
U 1 1 5E725E8A
P 2600 2100
F 0 "R1" V 2393 2100 50  0000 C CNN
F 1 "100k" V 2484 2100 50  0000 C CNN
F 2 "Capacitor_SMD:C_0603_1608Metric" V 2530 2100 50  0001 C CNN
F 3 "~" H 2600 2100 50  0001 C CNN
	1    2600 2100
	0    1    1    0   
$EndComp
$Comp
L Device:R R2
U 1 1 5E72634E
P 2750 2250
F 0 "R2" H 2680 2204 50  0000 R CNN
F 1 "100k" H 2680 2295 50  0000 R CNN
F 2 "Capacitor_SMD:C_0603_1608Metric" V 2680 2250 50  0001 C CNN
F 3 "~" H 2750 2250 50  0001 C CNN
	1    2750 2250
	-1   0    0    1   
$EndComp
$Comp
L Device:C C9
U 1 1 5E726AC7
P 2450 2250
F 0 "C9" H 2565 2296 50  0000 L CNN
F 1 "1uf" H 2565 2205 50  0000 L CNN
F 2 "Capacitor_SMD:C_0603_1608Metric" H 2488 2100 50  0001 C CNN
F 3 "~" H 2450 2250 50  0001 C CNN
	1    2450 2250
	1    0    0    -1  
$EndComp
$Comp
L power:GND #PWR0115
U 1 1 5E72797C
P 2450 2400
F 0 "#PWR0115" H 2450 2150 50  0001 C CNN
F 1 "GND" H 2455 2227 50  0000 C CNN
F 2 "" H 2450 2400 50  0001 C CNN
F 3 "" H 2450 2400 50  0001 C CNN
	1    2450 2400
	1    0    0    -1  
$EndComp
$Comp
L power:GND #PWR0116
U 1 1 5E727B07
P 2750 2400
F 0 "#PWR0116" H 2750 2150 50  0001 C CNN
F 1 "GND" H 2755 2227 50  0000 C CNN
F 2 "" H 2750 2400 50  0001 C CNN
F 3 "" H 2750 2400 50  0001 C CNN
	1    2750 2400
	1    0    0    -1  
$EndComp
Connection ~ 2450 2100
$Comp
L power:GND #PWR?
U 1 1 5E750E44
P 1000 1450
AR Path="/5E750E44" Ref="#PWR?"  Part="1" 
AR Path="/5E45A090/5E750E44" Ref="#PWR0117"  Part="1" 
F 0 "#PWR0117" H 1000 1200 50  0001 C CNN
F 1 "GND" H 1005 1277 50  0000 C CNN
F 2 "" H 1000 1450 50  0001 C CNN
F 3 "" H 1000 1450 50  0001 C CNN
	1    1000 1450
	1    0    0    -1  
$EndComp
$Comp
L Device:C C?
U 1 1 5E750E4A
P 700 1300
AR Path="/5E750E4A" Ref="C?"  Part="1" 
AR Path="/5E45A090/5E750E4A" Ref="C8"  Part="1" 
F 0 "C8" H 815 1346 50  0000 L CNN
F 1 "0.1uf" H 815 1255 50  0000 L CNN
F 2 "Capacitor_SMD:C_0603_1608Metric" H 738 1150 50  0001 C CNN
F 3 "~" H 700 1300 50  0001 C CNN
	1    700  1300
	1    0    0    -1  
$EndComp
Wire Wire Line
	1050 1200 900  1200
Wire Wire Line
	900  1200 900  1150
Wire Wire Line
	1050 1300 1000 1300
Wire Wire Line
	1000 1300 1000 1450
Wire Wire Line
	1000 1450 700  1450
Wire Wire Line
	700  1150 900  1150
Connection ~ 1000 1450
$Comp
L power:GND #PWR?
U 1 1 5E7568DC
P 1250 1600
AR Path="/5E7568DC" Ref="#PWR?"  Part="1" 
AR Path="/5E45A090/5E7568DC" Ref="#PWR0118"  Part="1" 
F 0 "#PWR0118" H 1250 1350 50  0001 C CNN
F 1 "GND" H 1255 1427 50  0000 C CNN
F 2 "" H 1250 1600 50  0001 C CNN
F 3 "" H 1250 1600 50  0001 C CNN
	1    1250 1600
	1    0    0    -1  
$EndComp
$Comp
L Connector:Barrel_Jack J9
U 1 1 5E769803
P 1450 850
F 0 "J9" H 1507 1175 50  0000 C CNN
F 1 "Barrel_Jack" H 1507 1084 50  0000 C CNN
F 2 "Connector_BarrelJack:BarrelJack_CUI_PJ-063AH_Horizontal" H 1500 810 50  0001 C CNN
F 3 "~" H 1500 810 50  0001 C CNN
	1    1450 850 
	1    0    0    -1  
$EndComp
$Comp
L power:GND #PWR?
U 1 1 5E76A2FB
P 1750 950
AR Path="/5E76A2FB" Ref="#PWR?"  Part="1" 
AR Path="/5E45A090/5E76A2FB" Ref="#PWR0119"  Part="1" 
F 0 "#PWR0119" H 1750 700 50  0001 C CNN
F 1 "GND" H 1755 777 50  0000 C CNN
F 2 "" H 1750 950 50  0001 C CNN
F 3 "" H 1750 950 50  0001 C CNN
	1    1750 950 
	0    -1   -1   0   
$EndComp
Text GLabel 2700 650  1    50   Input ~ 0
5V
NoConn ~ 7050 5650
Text GLabel 8900 1550 2    50   Input ~ 0
SENSE1
Text GLabel 8900 1700 2    50   Input ~ 0
SENSE2
Text GLabel 8900 2000 2    50   Input ~ 0
SENSE3
Text GLabel 8900 2150 2    50   Input ~ 0
SENSE4
Wire Wire Line
	4650 4700 4650 3600
Wire Wire Line
	1450 1600 1450 3600
Wire Wire Line
	4750 4800 4750 3450
Wire Wire Line
	1350 1600 1350 3450
Wire Wire Line
	1350 3450 4750 3450
Wire Wire Line
	1450 3600 4650 3600
Text GLabel 8400 1100 0    50   Input ~ 0
3V3
$Comp
L power:GND #PWR?
U 1 1 5E4EE6D2
P 8400 2400
F 0 "#PWR?" H 8400 2150 50  0001 C CNN
F 1 "GND" H 8405 2227 50  0000 C CNN
F 2 "" H 8400 2400 50  0001 C CNN
F 3 "" H 8400 2400 50  0001 C CNN
	1    8400 2400
	1    0    0    -1  
$EndComp
Wire Wire Line
	7900 1500 7900 950 
Wire Wire Line
	7900 950  9700 950 
Wire Wire Line
	9700 950  9700 1200
Wire Wire Line
	7900 1700 7850 1700
Wire Wire Line
	7850 1700 7850 1000
Wire Wire Line
	7850 1000 9650 1000
Wire Wire Line
	9650 1000 9650 1950
Wire Wire Line
	9650 1950 10800 1950
Wire Wire Line
	7850 1900 7850 2750
Wire Wire Line
	7850 2750 10800 2750
Wire Wire Line
	7850 1900 7900 1900
Wire Wire Line
	8400 1300 8400 1100
Text GLabel 6900 850  2    50   Input ~ 0
5V
Text GLabel 6900 2250 2    50   Input ~ 0
5V
Wire Wire Line
	6900 1250 7050 1250
$Comp
L Device:R R?
U 1 1 5E5A236E
P 7600 1500
F 0 "R?" V 7600 1450 50  0000 C CNN
F 1 "R" V 7600 1550 50  0000 C CNN
F 2 "" V 7530 1500 50  0001 C CNN
F 3 "~" H 7600 1500 50  0001 C CNN
	1    7600 1500
	0    -1   -1   0   
$EndComp
$Comp
L Device:R R?
U 1 1 5E5A2374
P 7600 1700
F 0 "R?" V 7600 1650 50  0000 C CNN
F 1 "R" V 7600 1750 50  0000 C CNN
F 2 "" V 7530 1700 50  0001 C CNN
F 3 "~" H 7600 1700 50  0001 C CNN
	1    7600 1700
	0    -1   -1   0   
$EndComp
$Comp
L Device:R R?
U 1 1 5E5A237A
P 7600 1900
F 0 "R?" V 7600 1850 50  0000 C CNN
F 1 "R" V 7600 1950 50  0000 C CNN
F 2 "" V 7530 1900 50  0001 C CNN
F 3 "~" H 7600 1900 50  0001 C CNN
	1    7600 1900
	0    -1   -1   0   
$EndComp
$Comp
L Device:R R?
U 1 1 5E5A2380
P 7600 2100
F 0 "R?" V 7600 2050 50  0000 C CNN
F 1 "R" V 7600 2150 50  0000 C CNN
F 2 "" V 7530 2100 50  0001 C CNN
F 3 "~" H 7600 2100 50  0001 C CNN
	1    7600 2100
	0    -1   -1   0   
$EndComp
Wire Wire Line
	6900 1050 7450 1050
Wire Wire Line
	7450 1050 7450 1500
Wire Wire Line
	7450 1500 7450 1600
Wire Wire Line
	7450 1600 7900 1600
Connection ~ 7450 1500
Wire Wire Line
	7900 1500 7750 1500
Wire Wire Line
	7050 1700 7450 1700
Wire Wire Line
	7050 1250 7050 1700
Wire Wire Line
	7450 1700 7450 1800
Wire Wire Line
	7450 1800 7900 1800
Connection ~ 7450 1700
Wire Wire Line
	7850 1700 7750 1700
Wire Wire Line
	6950 2450 7150 2450
Wire Wire Line
	7150 2450 7150 1900
Wire Wire Line
	7150 1900 7450 1900
Wire Wire Line
	7750 1900 7850 1900
Wire Wire Line
	7900 2000 7450 2000
Wire Wire Line
	7450 2000 7450 1900
Connection ~ 7450 1900
Wire Wire Line
	6900 2650 7450 2650
Wire Wire Line
	7450 2650 7450 2200
Wire Wire Line
	7450 2200 7900 2200
Connection ~ 7450 2200
Wire Wire Line
	7450 2200 7450 2100
Wire Wire Line
	7750 2100 7800 2100
Wire Wire Line
	7050 4250 7200 4250
$Comp
L Device:R R?
U 1 1 5E5A9EED
P 7900 4450
F 0 "R?" V 7900 4400 50  0000 C CNN
F 1 "R" V 7900 4500 50  0000 C CNN
F 2 "" V 7830 4450 50  0001 C CNN
F 3 "~" H 7900 4450 50  0001 C CNN
	1    7900 4450
	-1   0    0    1   
$EndComp
$Comp
L Device:R R?
U 1 1 5E5A9EF9
P 7600 5050
F 0 "R?" V 7600 5000 50  0000 C CNN
F 1 "R" V 7600 5100 50  0000 C CNN
F 2 "" V 7530 5050 50  0001 C CNN
F 3 "~" H 7600 5050 50  0001 C CNN
	1    7600 5050
	-1   0    0    1   
$EndComp
Wire Wire Line
	7300 5450 7300 5200
Wire Wire Line
	7050 5450 7300 5450
$Comp
L Device:C C?
U 1 1 5E6465B4
P 9350 1300
AR Path="/5E6465B4" Ref="C?"  Part="1" 
AR Path="/5E45A090/5E6465B4" Ref="C?"  Part="1" 
F 0 "C?" H 9465 1346 50  0000 L CNN
F 1 "0.1uf" H 9465 1255 50  0000 L CNN
F 2 "Capacitor_SMD:C_0603_1608Metric" H 9388 1150 50  0001 C CNN
F 3 "~" H 9350 1300 50  0001 C CNN
	1    9350 1300
	1    0    0    -1  
$EndComp
$Comp
L power:GND #PWR?
U 1 1 5E6465BA
P 9350 1450
AR Path="/5E6465BA" Ref="#PWR?"  Part="1" 
AR Path="/5E45A090/5E6465BA" Ref="#PWR?"  Part="1" 
F 0 "#PWR?" H 9350 1200 50  0001 C CNN
F 1 "GND" H 9355 1277 50  0000 C CNN
F 2 "" H 9350 1450 50  0001 C CNN
F 3 "" H 9350 1450 50  0001 C CNN
	1    9350 1450
	1    0    0    -1  
$EndComp
Wire Wire Line
	8400 1100 9350 1100
Wire Wire Line
	9350 1100 9350 1150
$Comp
L Device:C C?
U 1 1 5E64DB67
P 8900 3600
AR Path="/5E64DB67" Ref="C?"  Part="1" 
AR Path="/5E45A090/5E64DB67" Ref="C?"  Part="1" 
F 0 "C?" H 9015 3646 50  0000 L CNN
F 1 "0.1uf" H 9015 3555 50  0000 L CNN
F 2 "Capacitor_SMD:C_0603_1608Metric" H 8938 3450 50  0001 C CNN
F 3 "~" H 8900 3600 50  0001 C CNN
	1    8900 3600
	1    0    0    -1  
$EndComp
$Comp
L power:GND #PWR?
U 1 1 5E64DB6D
P 8900 3750
AR Path="/5E64DB6D" Ref="#PWR?"  Part="1" 
AR Path="/5E45A090/5E64DB6D" Ref="#PWR?"  Part="1" 
F 0 "#PWR?" H 8900 3500 50  0001 C CNN
F 1 "GND" H 8905 3577 50  0000 C CNN
F 2 "" H 8900 3750 50  0001 C CNN
F 3 "" H 8900 3750 50  0001 C CNN
	1    8900 3750
	1    0    0    -1  
$EndComp
Wire Wire Line
	8900 3400 8900 3450
Text GLabel 8900 3200 1    50   Input ~ 0
3V3
$Comp
L power:GND #PWR?
U 1 1 5E658255
P 8550 5400
AR Path="/5E658255" Ref="#PWR?"  Part="1" 
AR Path="/5E45A090/5E658255" Ref="#PWR?"  Part="1" 
F 0 "#PWR?" H 8550 5150 50  0001 C CNN
F 1 "GND" H 8555 5227 50  0000 C CNN
F 2 "" H 8550 5400 50  0001 C CNN
F 3 "" H 8550 5400 50  0001 C CNN
	1    8550 5400
	1    0    0    -1  
$EndComp
Wire Wire Line
	8550 3400 8550 4300
Wire Wire Line
	8550 3400 8900 3400
Text GLabel 9050 4550 2    50   Input ~ 0
SENSE5
Text GLabel 9050 4700 2    50   Input ~ 0
SENSE6
Text GLabel 9050 5000 2    50   Input ~ 0
SENSE_MCU
Text GLabel 9050 5150 2    50   Input ~ 0
SENSE_EXT
Wire Wire Line
	10800 5150 9700 5150
$Comp
L Connector_Generic:Conn_01x02 J?
U 1 1 5E6B666C
P 7650 6350
F 0 "J?" V 7522 6430 50  0000 L CNN
F 1 "External Sense" V 7613 6430 50  0000 L CNN
F 2 "Connector_PinHeader_2.54mm:PinHeader_1x02_P2.54mm_Horizontal" H 7650 6350 50  0001 C CNN
F 3 "~" H 7650 6350 50  0001 C CNN
	1    7650 6350
	0    1    1    0   
$EndComp
Wire Wire Line
	7650 6150 7650 5400
Wire Wire Line
	8900 3400 8900 3200
Connection ~ 8900 3400
Wire Wire Line
	7800 2100 7800 2800
Wire Wire Line
	7800 2800 9600 2800
Wire Wire Line
	9600 2800 9600 3550
Wire Wire Line
	9600 3550 10800 3550
Connection ~ 7800 2100
Wire Wire Line
	7800 2100 7900 2100
Wire Wire Line
	10800 4150 10800 4350
Wire Wire Line
	8000 4200 9500 4200
Wire Wire Line
	9500 4200 9500 4350
Wire Wire Line
	9500 4350 10800 4350
$Comp
L Device:R R?
U 1 1 5E762E88
P 7900 5250
F 0 "R?" V 7900 5200 50  0000 C CNN
F 1 "R" V 7900 5300 50  0000 C CNN
F 2 "" V 7830 5250 50  0001 C CNN
F 3 "~" H 7900 5250 50  0001 C CNN
	1    7900 5250
	-1   0    0    1   
$EndComp
Wire Wire Line
	7900 5100 8050 5100
Wire Wire Line
	7900 4600 8050 4600
Wire Wire Line
	8050 4500 8000 4500
Wire Wire Line
	7900 4300 8000 4300
Wire Wire Line
	8000 4200 8000 4300
Connection ~ 8000 4300
Wire Wire Line
	8000 4300 8000 4500
$Comp
L Device:R R?
U 1 1 5E5A9EF3
P 7600 4650
F 0 "R?" V 7600 4600 50  0000 C CNN
F 1 "R" V 7600 4700 50  0000 C CNN
F 2 "" V 7530 4650 50  0001 C CNN
F 3 "~" H 7600 4650 50  0001 C CNN
	1    7600 4650
	1    0    0    -1  
$EndComp
Wire Wire Line
	7900 4600 7800 4600
Wire Wire Line
	7800 4600 7800 4050
Wire Wire Line
	7050 4050 7800 4050
Connection ~ 7900 4600
Wire Wire Line
	7600 4800 8050 4800
Wire Wire Line
	7200 4800 7600 4800
Wire Wire Line
	7200 4250 7200 4800
Connection ~ 7600 4800
Wire Wire Line
	7600 4500 7700 4500
Wire Wire Line
	7700 4500 7700 4700
Wire Wire Line
	7700 4700 8050 4700
Wire Wire Line
	7700 4500 7700 4100
Wire Wire Line
	7700 4100 9700 4100
Wire Wire Line
	9700 4100 9700 5150
Connection ~ 7700 4500
Wire Wire Line
	8050 5200 8050 5400
Wire Wire Line
	8050 5400 7900 5400
Wire Wire Line
	7900 5400 7650 5400
Connection ~ 7900 5400
Wire Wire Line
	7600 5200 7700 5200
Wire Wire Line
	7700 5200 7700 5000
Wire Wire Line
	7700 5000 8050 5000
Wire Wire Line
	7600 5200 7300 5200
Connection ~ 7600 5200
Wire Wire Line
	7550 6150 7550 5300
Wire Wire Line
	7550 5300 7750 5300
Wire Wire Line
	7750 5300 7750 5100
Wire Wire Line
	7750 5100 7900 5100
Connection ~ 7900 5100
Text GLabel 7450 4900 0    50   Input ~ 0
MCU_VCC
Wire Wire Line
	7600 4900 8050 4900
Wire Wire Line
	7450 4900 7600 4900
Connection ~ 7600 4900
Wire Wire Line
	4350 6200 5000 6200
Wire Wire Line
	2750 2100 5000 2100
Connection ~ 2750 2100
Wire Wire Line
	5000 2100 5000 6200
Wire Wire Line
	1650 1600 1650 2100
Wire Wire Line
	1650 2100 2450 2100
$Comp
L Regulator_Linear:LT1086-3.3 U?
U 1 1 5E9005EB
P 3250 750
F 0 "U?" H 3250 992 50  0000 C CNN
F 1 "LT1086-3.3" H 3250 901 50  0000 C CNN
F 2 "" H 3250 1000 50  0001 C CIN
F 3 "https://www.analog.com/media/en/technical-documentation/data-sheets/1086ffs.pdf" H 3250 750 50  0001 C CNN
	1    3250 750 
	1    0    0    -1  
$EndComp
$Comp
L Device:CP1_Small C?
U 1 1 5E90453B
P 2700 850
F 0 "C?" H 2791 896 50  0000 L CNN
F 1 "10uf" H 2791 805 50  0000 L CNN
F 2 "" H 2700 850 50  0001 C CNN
F 3 "~" H 2700 850 50  0001 C CNN
	1    2700 850 
	1    0    0    -1  
$EndComp
$Comp
L Device:CP1_Small C?
U 1 1 5E904F2A
P 3750 850
F 0 "C?" H 3841 896 50  0000 L CNN
F 1 "10uf" H 3841 805 50  0000 L CNN
F 2 "" H 3750 850 50  0001 C CNN
F 3 "~" H 3750 850 50  0001 C CNN
	1    3750 850 
	1    0    0    -1  
$EndComp
$Comp
L Device:C C?
U 1 1 5E90AA20
P 4250 900
F 0 "C?" H 4365 946 50  0000 L CNN
F 1 "4.7uf" H 4365 855 50  0000 L CNN
F 2 "" H 4288 750 50  0001 C CNN
F 3 "~" H 4250 900 50  0001 C CNN
	1    4250 900 
	1    0    0    -1  
$EndComp
Wire Wire Line
	1750 750  2700 750 
Wire Wire Line
	2950 750  2700 750 
Connection ~ 2700 750 
Wire Wire Line
	3550 750  3750 750 
Wire Wire Line
	3750 750  4250 750 
Connection ~ 3750 750 
$Comp
L power:GND #PWR?
U 1 1 5E9269C2
P 2700 950
AR Path="/5E9269C2" Ref="#PWR?"  Part="1" 
AR Path="/5E45A090/5E9269C2" Ref="#PWR?"  Part="1" 
F 0 "#PWR?" H 2700 700 50  0001 C CNN
F 1 "GND" H 2705 777 50  0000 C CNN
F 2 "" H 2700 950 50  0001 C CNN
F 3 "" H 2700 950 50  0001 C CNN
	1    2700 950 
	1    0    0    -1  
$EndComp
$Comp
L power:GND #PWR?
U 1 1 5E926D72
P 3250 1050
AR Path="/5E926D72" Ref="#PWR?"  Part="1" 
AR Path="/5E45A090/5E926D72" Ref="#PWR?"  Part="1" 
F 0 "#PWR?" H 3250 800 50  0001 C CNN
F 1 "GND" H 3255 877 50  0000 C CNN
F 2 "" H 3250 1050 50  0001 C CNN
F 3 "" H 3250 1050 50  0001 C CNN
	1    3250 1050
	1    0    0    -1  
$EndComp
$Comp
L power:GND #PWR?
U 1 1 5E92703E
P 3750 950
AR Path="/5E92703E" Ref="#PWR?"  Part="1" 
AR Path="/5E45A090/5E92703E" Ref="#PWR?"  Part="1" 
F 0 "#PWR?" H 3750 700 50  0001 C CNN
F 1 "GND" H 3755 777 50  0000 C CNN
F 2 "" H 3750 950 50  0001 C CNN
F 3 "" H 3750 950 50  0001 C CNN
	1    3750 950 
	1    0    0    -1  
$EndComp
$Comp
L power:GND #PWR?
U 1 1 5E9272B5
P 4250 1050
AR Path="/5E9272B5" Ref="#PWR?"  Part="1" 
AR Path="/5E45A090/5E9272B5" Ref="#PWR?"  Part="1" 
F 0 "#PWR?" H 4250 800 50  0001 C CNN
F 1 "GND" H 4255 877 50  0000 C CNN
F 2 "" H 4250 1050 50  0001 C CNN
F 3 "" H 4250 1050 50  0001 C CNN
	1    4250 1050
	1    0    0    -1  
$EndComp
Text GLabel 4450 750  2    50   Input ~ 0
3V3
Wire Wire Line
	4450 750  4250 750 
Connection ~ 4250 750 
Wire Wire Line
	2700 750  2700 650 
$EndSCHEMATC
